<svg width="20" height="20" viewBox="0 0 20 20" fill="none" xmlns="http://www.w3.org/2000/svg">
<path d="M8.6665 8.66663V0.666626H11.3332V8.66663H19.3332V11.3333H11.3332V19.3333H8.6665V11.3333H0.666504V8.66663H8.6665Z" fill="white"/>
</svg>
